%YAML 1.1
%TAG !u! tag:unity3d.com,2011:
--- !u!74 &7400000
AnimationClip:
  m_ObjectHideFlags: 0
  m_CorrespondingSourceObject: {fileID: 0}
  m_PrefabInstance: {fileID: 0}
  m_PrefabAsset: {fileID: 0}
  m_Name: Attack
  serializedVersion: 6
  m_Legacy: 0
  m_Compressed: 0
  m_UseHighQualityCurve: 1
  m_RotationCurves: []
  m_CompressedRotationCurves: []
  m_EulerCurves: []
  m_PositionCurves: []
  m_ScaleCurves: []
  m_FloatCurves: []
  m_PPtrCurves:
  - curve:
    - time: 0
      value: {fileID: 21300000, guid: 0ba8d16097139d74086bc178cd68f8f5, type: 3}
    - time: 0.04
      value: {fileID: 21300000, guid: 1b4e829d05cd4194fbd3714727b39df9, type: 3}
    - time: 0.08
      value: {fileID: 21300000, guid: b2d8cd1dc32ae24428cd0e02c9e9dc6f, type: 3}
    - time: 0.12
      value: {fileID: 21300000, guid: 271d92a7fc7653b4a83b1b6b92ae1604, type: 3}
    - time: 0.16
      value: {fileID: 21300000, guid: 244d37d204cfefb4fab33463d823aa1c, type: 3}
    - time: 0.2
      value: {fileID: 21300000, guid: cfd90032abe29a14391f077dc4a8a36d, type: 3}
    - time: 0.24
      value: {fileID: 21300000, guid: 29408a95590c43145937d0f0a06de423, type: 3}
    - time: 0.28
      value: {fileID: 21300000, guid: 3e1e29b2b579533489016e86fc76e394, type: 3}
    - time: 0.32
      value: {fileID: 21300000, guid: a83c750b0c775dc4b8ca290ab281122b, type: 3}
    - time: 0.36
      value: {fileID: 21300000, guid: 2f42a9d83c032834aa38fd4d8748a2c3, type: 3}
    - time: 0.4
      value: {fileID: 21300000, guid: aa0c2c1e1fcb4b444abd309b30df504f, type: 3}
    - time: 0.44
      value: {fileID: 21300000, guid: 5ca62a764c77d7b40a72ca6df12a0ad3, type: 3}
    - time: 0.48
      value: {fileID: 21300000, guid: 0f907f3418c76f645bd42b9232fc8f21, type: 3}
    - time: 0.52
      value: {fileID: 21300000, guid: a858ade1a63bf1c4f9f216040d986470, type: 3}
    - time: 0.56
      value: {fileID: 21300000, guid: cfddbb85abb17534fb0c691fa8884b27, type: 3}
    - time: 0.6
      value: {fileID: 21300000, guid: 5bfcde325a696b8418db0f3002a2e1d7, type: 3}
    - time: 0.64
      value: {fileID: 21300000, guid: 3aee0282d3cfd9f4192391be8d8d4eeb, type: 3}
    - time: 0.68
      value: {fileID: 21300000, guid: 39575177a0471d147bcfa88c0b4f9682, type: 3}
    - time: 0.72
      value: {fileID: 21300000, guid: b24eb0b406147ec43a7ce427941c80db, type: 3}
    - time: 0.76
      value: {fileID: 21300000, guid: 11610b3abb3f17b43b4b966d1ecd4cc3, type: 3}
    attribute: m_Sprite
    path: Sprite
    classID: 212
    script: {fileID: 0}
  m_SampleRate: 25
  m_WrapMode: 0
  m_Bounds:
    m_Center: {x: 0, y: 0, z: 0}
    m_Extent: {x: 0, y: 0, z: 0}
  m_ClipBindingConstant:
    genericBindings:
    - serializedVersion: 2
      path: 850496168
      attribute: 0
      script: {fileID: 0}
      typeID: 212
      customType: 23
      isPPtrCurve: 1
    pptrCurveMapping:
    - {fileID: 21300000, guid: 0ba8d16097139d74086bc178cd68f8f5, type: 3}
    - {fileID: 21300000, guid: 1b4e829d05cd4194fbd3714727b39df9, type: 3}
    - {fileID: 21300000, guid: b2d8cd1dc32ae24428cd0e02c9e9dc6f, type: 3}
    - {fileID: 21300000, guid: 271d92a7fc7653b4a83b1b6b92ae1604, type: 3}
    - {fileID: 21300000, guid: 244d37d204cfefb4fab33463d823aa1c, type: 3}
    - {fileID: 21300000, guid: cfd90032abe29a14391f077dc4a8a36d, type: 3}
    - {fileID: 21300000, guid: 29408a95590c43145937d0f0a06de423, type: 3}
    - {fileID: 21300000, guid: 3e1e29b2b579533489016e86fc76e394, type: 3}
    - {fileID: 21300000, guid: a83c750b0c775dc4b8ca290ab281122b, type: 3}
    - {fileID: 21300000, guid: 2f42a9d83c032834aa38fd4d8748a2c3, type: 3}
    - {fileID: 21300000, guid: aa0c2c1e1fcb4b444abd309b30df504f, type: 3}
    - {fileID: 21300000, guid: 5ca62a764c77d7b40a72ca6df12a0ad3, type: 3}
    - {fileID: 21300000, guid: 0f907f3418c76f645bd42b9232fc8f21, type: 3}
    - {fileID: 21300000, guid: a858ade1a63bf1c4f9f216040d986470, type: 3}
    - {fileID: 21300000, guid: cfddbb85abb17534fb0c691fa8884b27, type: 3}
    - {fileID: 21300000, guid: 5bfcde325a696b8418db0f3002a2e1d7, type: 3}
    - {fileID: 21300000, guid: 3aee0282d3cfd9f4192391be8d8d4eeb, type: 3}
    - {fileID: 21300000, guid: 39575177a0471d147bcfa88c0b4f9682, type: 3}
    - {fileID: 21300000, guid: b24eb0b406147ec43a7ce427941c80db, type: 3}
    - {fileID: 21300000, guid: 11610b3abb3f17b43b4b966d1ecd4cc3, type: 3}
  m_AnimationClipSettings:
    serializedVersion: 2
    m_AdditiveReferencePoseClip: {fileID: 0}
    m_AdditiveReferencePoseTime: 0
    m_StartTime: 0
    m_StopTime: 0.8
    m_OrientationOffsetY: 0
    m_Level: 0
    m_CycleOffset: 0
    m_HasAdditiveReferencePose: 0
    m_LoopTime: 1
    m_LoopBlend: 0
    m_LoopBlendOrientation: 0
    m_LoopBlendPositionY: 0
    m_LoopBlendPositionXZ: 0
    m_KeepOriginalOrientation: 0
    m_KeepOriginalPositionY: 1
    m_KeepOriginalPositionXZ: 0
    m_HeightFromFeet: 0
    m_Mirror: 0
  m_EditorCurves: []
  m_EulerEditorCurves: []
  m_HasGenericRootTransform: 0
  m_HasMotionFloatCurves: 0
  m_Events: []
